{
    "borderAreas": [
        {
            "cereal_class_version": 1,
            "vertices": [],
            "holes": [],
            "color": 2
        },
        {
            "vertices": [],
            "holes": [],
            "color": 0
        },
        {
            "vertices": [],
            "holes": [],
            "color": 1
        },
        {
            "vertices": [],
            "holes": [],
            "color": 1
        },
        {
            "vertices": [
                {
                    "cereal_class_version": 0,
                    "position": {
                        "cereal_class_version": 0,
                        "value0": -350.0,
                        "value1": 220.0
                    }
                },
                {
                    "position": {
                        "value0": 350.0,
                        "value1": 215.0
                    }
                },
                {
                    "position": {
                        "value0": 335.0,
                        "value1": -295.0
                    }
                },
                {
                    "position": {
                        "value0": -345.0,
                        "value1": -200.0
                    }
                }
            ],
            "holes": [
                [
                    {
                        "position": {
                            "value0": -320.0,
                            "value1": 180.0
                        }
                    },
                    {
                        "position": {
                            "value0": 320.0,
                            "value1": 180.0
                        }
                    },
                    {
                        "position": {
                            "value0": 320.0,
                            "value1": -275.0
                        }
                    },
                    {
                        "position": {
                            "value0": -320.0,
                            "value1": -180.0
                        }
                    }
                ]
            ],
            "color": 2
        },
        {
            "vertices": [],
            "holes": [],
            "color": 1
        },
        {
            "vertices": [],
            "holes": [],
            "color": 0
        },
        {
            "vertices": [],
            "holes": [],
            "color": 0
        },
        {
            "vertices": [],
            "holes": [],
            "color": 0
        },
        {
            "vertices": [],
            "holes": [],
            "color": 2
        },
        {
            "vertices": [],
            "holes": [],
            "color": 0
        },
        {
            "vertices": [
                {
                    "position": {
                        "value0": -260.0,
                        "value1": -20.0
                    }
                },
                {
                    "position": {
                        "value0": -215.0,
                        "value1": 65.0
                    }
                },
                {
                    "position": {
                        "value0": -100.0,
                        "value1": 170.0
                    }
                },
                {
                    "position": {
                        "value0": -15.0,
                        "value1": 180.0
                    }
                },
                {
                    "position": {
                        "value0": -320.0,
                        "value1": 180.0
                    }
                },
                {
                    "position": {
                        "value0": -320.0,
                        "value1": 50.0
                    }
                }
            ],
            "holes": [],
            "color": 1
        },
        {
            "vertices": [
                {
                    "position": {
                        "value0": 25.0,
                        "value1": 5.0
                    }
                },
                {
                    "position": {
                        "value0": 25.0,
                        "value1": 180.0
                    }
                },
                {
                    "position": {
                        "value0": 320.0,
                        "value1": 180.0
                    }
                },
                {
                    "position": {
                        "value0": 320.0,
                        "value1": -155.0
                    }
                },
                {
                    "position": {
                        "value0": 240.0,
                        "value1": -110.0
                    }
                },
                {
                    "position": {
                        "value0": 245.0,
                        "value1": 65.0
                    }
                },
                {
                    "position": {
                        "value0": 80.0,
                        "value1": 50.0
                    }
                }
            ],
            "holes": [
                [
                    {
                        "position": {
                            "value0": 145.0,
                            "value1": 130.0
                        }
                    },
                    {
                        "position": {
                            "value0": 205.0,
                            "value1": 135.0
                        }
                    },
                    {
                        "position": {
                            "value0": 215.0,
                            "value1": 105.0
                        }
                    },
                    {
                        "position": {
                            "value0": 140.0,
                            "value1": 105.0
                        }
                    }
                ]
            ],
            "color": 0
        },
        {
            "vertices": [],
            "holes": [],
            "color": 1
        },
        {
            "vertices": [],
            "holes": [],
            "color": 1
        },
        {
            "vertices": [],
            "holes": [],
            "color": 0
        },
        {
            "vertices": [
                {
                    "position": {
                        "value0": 135.0,
                        "value1": 140.0
                    }
                },
                {
                    "position": {
                        "value0": 205.0,
                        "value1": 135.0
                    }
                },
                {
                    "position": {
                        "value0": 212.0,
                        "value1": 115.0
                    }
                },
                {
                    "position": {
                        "value0": 190.0,
                        "value1": 115.0
                    }
                },
                {
                    "position": {
                        "value0": 185.0,
                        "value1": 125.0
                    }
                },
                {
                    "position": {
                        "value0": 145.0,
                        "value1": 130.0
                    }
                }
            ],
            "holes": [],
            "color": 2
        },
        {
            "vertices": [
                {
                    "position": {
                        "value0": 115.0,
                        "value1": 60.0
                    }
                },
                {
                    "position": {
                        "value0": 120.0,
                        "value1": 70.0
                    }
                },
                {
                    "position": {
                        "value0": 155.0,
                        "value1": 75.0
                    }
                },
                {
                    "position": {
                        "value0": 155.0,
                        "value1": 65.0
                    }
                }
            ],
            "holes": [],
            "color": 1
        },
        {
            "vertices": [
                {
                    "position": {
                        "value0": 250.0,
                        "value1": -5.0
                    }
                },
                {
                    "position": {
                        "value0": 250.0,
                        "value1": 10.0
                    }
                },
                {
                    "position": {
                        "value0": 345.0,
                        "value1": -5.0
                    }
                },
                {
                    "position": {
                        "value0": 340.0,
                        "value1": -15.0
                    }
                }
            ],
            "holes": [],
            "color": 1
        },
        {
            "vertices": [
                {
                    "position": {
                        "value0": 290.0,
                        "value1": -45.0
                    }
                },
                {
                    "position": {
                        "value0": 335.0,
                        "value1": -50.0
                    }
                },
                {
                    "position": {
                        "value0": 330.0,
                        "value1": -70.0
                    }
                },
                {
                    "position": {
                        "value0": 295.0,
                        "value1": -60.0
                    }
                }
            ],
            "holes": [],
            "color": 2
        },
        {
            "vertices": [
                {
                    "position": {
                        "value0": 280.0,
                        "value1": -110.0
                    }
                },
                {
                    "position": {
                        "value0": 195.0,
                        "value1": -145.0
                    }
                },
                {
                    "position": {
                        "value0": 195.0,
                        "value1": -130.0
                    }
                },
                {
                    "position": {
                        "value0": 265.0,
                        "value1": -100.0
                    }
                }
            ],
            "holes": [],
            "color": 1
        },
        {
            "vertices": [
                {
                    "position": {
                        "value0": 10.0,
                        "value1": -100.0
                    }
                },
                {
                    "position": {
                        "value0": 0.0,
                        "value1": -115.0
                    }
                },
                {
                    "position": {
                        "value0": 85.0,
                        "value1": -135.0
                    }
                },
                {
                    "position": {
                        "value0": 100.0,
                        "value1": -120.0
                    }
                }
            ],
            "holes": [],
            "color": 1
        },
        {
            "vertices": [
                {
                    "position": {
                        "value0": -330.0,
                        "value1": -75.0
                    }
                },
                {
                    "position": {
                        "value0": -320.0,
                        "value1": -55.0
                    }
                },
                {
                    "position": {
                        "value0": -75.0,
                        "value1": -30.0
                    }
                },
                {
                    "position": {
                        "value0": -70.0,
                        "value1": -50.0
                    }
                }
            ],
            "holes": [
                []
            ],
            "color": 2
        },
        {
            "vertices": [
                {
                    "position": {
                        "value0": -330.0,
                        "value1": -70.0
                    }
                },
                {
                    "position": {
                        "value0": -330.0,
                        "value1": -160.0
                    }
                },
                {
                    "position": {
                        "value0": -115.0,
                        "value1": -150.0
                    }
                },
                {
                    "position": {
                        "value0": -139.5,
                        "value1": -56.5
                    }
                }
            ],
            "holes": [],
            "color": 1
        },
        {
            "vertices": [
                {
                    "position": {
                        "value0": -114.0,
                        "value1": -54.0
                    }
                },
                {
                    "position": {
                        "value0": -88.75,
                        "value1": -51.75
                    }
                },
                {
                    "position": {
                        "value0": -60.0,
                        "value1": -145.0
                    }
                },
                {
                    "position": {
                        "value0": -90.0,
                        "value1": -145.0
                    }
                }
            ],
            "holes": [],
            "color": 0
        }
    ],
    "editorObjects": [
        {
            "polymorphic_id": 2147483649,
            "polymorphic_name": "Player",
            "ptr_wrapper": {
                "valid": 1,
                "data": {
                    "cereal_class_version": 0,
                    "value0": {
                        "value0": -290.0,
                        "value1": -135.0
                    },
                    "value1": 0
                }
            }
        },
        {
            "polymorphic_id": 1,
            "ptr_wrapper": {
                "valid": 1,
                "data": {
                    "value0": {
                        "value0": 285.0,
                        "value1": 150.0
                    },
                    "value1": 1
                }
            }
        },
        {
            "polymorphic_id": 2147483650,
            "polymorphic_name": "Goal",
            "ptr_wrapper": {
                "valid": 1,
                "data": {
                    "cereal_class_version": 0,
                    "value0": {
                        "value0": -40.0,
                        "value1": -95.0
                    }
                }
            }
        },
        {
            "polymorphic_id": 2147483651,
            "polymorphic_name": "Box",
            "ptr_wrapper": {
                "valid": 1,
                "data": {
                    "cereal_class_version": 0,
                    "value0": {
                        "value0": -85.0,
                        "value1": 30.000001907348634
                    }
                }
            }
        },
        {
            "polymorphic_id": 3,
            "ptr_wrapper": {
                "valid": 1,
                "data": {
                    "value0": {
                        "value0": -100.0,
                        "value1": 130.0
                    }
                }
            }
        },
        {
            "polymorphic_id": 3,
            "ptr_wrapper": {
                "valid": 1,
                "data": {
                    "value0": {
                        "value0": 155.0,
                        "value1": -230.0
                    }
                }
            }
        }
    ]
}