{
    "borderAreas": [
        {
            "cereal_class_version": 1,
            "vertices": [],
            "holes": [],
            "color": 1
        },
        {
            "vertices": [],
            "holes": [],
            "color": 0
        },
        {
            "vertices": [],
            "holes": [],
            "color": 1
        },
        {
            "vertices": [],
            "holes": [],
            "color": 1
        },
        {
            "vertices": [
                {
                    "cereal_class_version": 0,
                    "position": {
                        "cereal_class_version": 0,
                        "value0": -350.0,
                        "value1": 220.0
                    }
                },
                {
                    "position": {
                        "value0": 350.0,
                        "value1": 215.0
                    }
                },
                {
                    "position": {
                        "value0": 335.0,
                        "value1": -300.0
                    }
                },
                {
                    "position": {
                        "value0": -345.0,
                        "value1": -270.0
                    }
                }
            ],
            "holes": [
                [
                    {
                        "position": {
                            "value0": -320.0,
                            "value1": 180.0
                        }
                    },
                    {
                        "position": {
                            "value0": 320.0,
                            "value1": 180.0
                        }
                    },
                    {
                        "position": {
                            "value0": 320.0,
                            "value1": -280.0
                        }
                    },
                    {
                        "position": {
                            "value0": -320.0,
                            "value1": -250.0
                        }
                    }
                ]
            ],
            "color": 2
        },
        {
            "vertices": [],
            "holes": [],
            "color": 1
        },
        {
            "vertices": [],
            "holes": [],
            "color": 0
        },
        {
            "vertices": [],
            "holes": [],
            "color": 0
        },
        {
            "vertices": [],
            "holes": [],
            "color": 0
        },
        {
            "vertices": [
                {
                    "position": {
                        "value0": -30.0,
                        "value1": 180.0
                    }
                },
                {
                    "position": {
                        "value0": 40.0,
                        "value1": 180.0
                    }
                },
                {
                    "position": {
                        "value0": 40.0,
                        "value1": 160.0
                    }
                },
                {
                    "position": {
                        "value0": -30.0,
                        "value1": 160.0
                    }
                }
            ],
            "holes": [],
            "color": 2
        },
        {
            "vertices": [
                {
                    "position": {
                        "value0": -290.0,
                        "value1": 80.0
                    }
                },
                {
                    "position": {
                        "value0": -250.0,
                        "value1": 80.0
                    }
                },
                {
                    "position": {
                        "value0": -250.0,
                        "value1": 0.0
                    }
                },
                {
                    "position": {
                        "value0": -290.0,
                        "value1": 0.0
                    }
                }
            ],
            "holes": [],
            "color": 0
        },
        {
            "vertices": [
                {
                    "position": {
                        "value0": 240.0,
                        "value1": -35.0
                    }
                },
                {
                    "position": {
                        "value0": 280.0,
                        "value1": -35.0
                    }
                },
                {
                    "position": {
                        "value0": 280.0,
                        "value1": -120.0
                    }
                },
                {
                    "position": {
                        "value0": 240.0,
                        "value1": -120.0
                    }
                }
            ],
            "holes": [],
            "color": 1
        },
        {
            "vertices": [
                {
                    "position": {
                        "value0": 240.0,
                        "value1": -35.0
                    }
                },
                {
                    "position": {
                        "value0": 280.0,
                        "value1": -35.0
                    }
                },
                {
                    "position": {
                        "value0": 280.0,
                        "value1": -20.0
                    }
                },
                {
                    "position": {
                        "value0": 240.0,
                        "value1": -20.0
                    }
                }
            ],
            "holes": [],
            "color": 2
        },
        {
            "vertices": [
                {
                    "position": {
                        "value0": -250.0,
                        "value1": 80.0
                    }
                },
                {
                    "position": {
                        "value0": -290.0,
                        "value1": 80.0
                    }
                },
                {
                    "position": {
                        "value0": -290.0,
                        "value1": 95.0
                    }
                },
                {
                    "position": {
                        "value0": -250.0,
                        "value1": 95.0
                    }
                }
            ],
            "holes": [],
            "color": 2
        }
    ],
    "editorObjects": [
        {
            "polymorphic_id": 2147483649,
            "polymorphic_name": "Goal",
            "ptr_wrapper": {
                "valid": 1,
                "data": {
                    "cereal_class_version": 0,
                    "value0": {
                        "value0": 112.33333587646485,
                        "value1": 133.33334350585938
                    }
                }
            }
        },
        {
            "polymorphic_id": 2147483650,
            "polymorphic_name": "Player",
            "ptr_wrapper": {
                "valid": 1,
                "data": {
                    "cereal_class_version": 0,
                    "value0": {
                        "value0": 260.0,
                        "value1": -260.0
                    },
                    "value1": 0
                }
            }
        },
        {
            "polymorphic_id": 2,
            "ptr_wrapper": {
                "valid": 1,
                "data": {
                    "value0": {
                        "value0": -270.0,
                        "value1": -205.0
                    },
                    "value1": 1
                }
            }
        }
    ]
}